[gd_resource type="ShaderMaterial" load_steps=2 format=2]

[ext_resource path="res://terrain/brush_shader.shader" type="Shader" id=1]

[resource]

render_priority = 0
shader = ExtResource( 1 )
shader_param/brush_str = 10.0

